{"current_page":2,"data":[{"id":26,"historico_id":5,"name":"Derek Hill","governmentId":"7463","email":"awatson@example.org","debtAmount":"9274.00","debtDueDate":"2023-02-03","debtId":"4dffde1a-649d-4451-b054-a072c4b7b9f2","created_at":null,"updated_at":null},{"id":27,"historico_id":5,"name":"Jordan Hernandez","governmentId":"9014","email":"alexandra39@example.org","debtAmount":"5624.00","debtDueDate":"2022-12-15","debtId":"54c734bb-312e-405b-821e-cfe08a15d3ab","created_at":null,"updated_at":null},{"id":28,"historico_id":5,"name":"Amber Olson","governmentId":"7864","email":"zhayden@example.org","debtAmount":"6426.00","debtDueDate":"2022-10-25","debtId":"a4db4f34-bd02-475d-9a7e-15d0588f4aea","created_at":null,"updated_at":null},{"id":29,"historico_id":5,"name":"Ryan Thomas","governmentId":"5685","email":"reyesdonna@example.org","debtAmount":"2432.00","debtDueDate":"2023-11-29","debtId":"a28dad4d-b10c-4110-a596-cbbe7e522950","created_at":null,"updated_at":null},{"id":30,"historico_id":5,"name":"Dustin Jensen","governmentId":"4720","email":"nancyrios@example.com","debtAmount":"2213.00","debtDueDate":"2023-04-18","debtId":"5837e27f-05be-4e6b-bd27-9c894afd22ae","created_at":null,"updated_at":null},{"id":31,"historico_id":5,"name":"Anne York","governmentId":"3804","email":"timothykane@example.net","debtAmount":"9951.00","debtDueDate":"2023-04-18","debtId":"f5a05d03-d322-4ab2-a014-f085ce92384a","created_at":null,"updated_at":null},{"id":32,"historico_id":5,"name":"Allison Alexander","governmentId":"4211","email":"snowmichael@example.com","debtAmount":"6578.00","debtDueDate":"2024-03-15","debtId":"877fa10b-fe32-419e-affa-f2bdb10772fa","created_at":null,"updated_at":null},{"id":33,"historico_id":5,"name":"Alexander Sutton","governmentId":"8069","email":"cdouglas@example.com","debtAmount":"7061.00","debtDueDate":"2023-11-26","debtId":"3c129909-246f-44b3-9b88-2a440d087d39","created_at":null,"updated_at":null},{"id":34,"historico_id":5,"name":"Cheryl Jones","governmentId":"5407","email":"csmith@example.net","debtAmount":"5815.00","debtDueDate":"2024-04-29","debtId":"921cad3d-200a-4195-8325-3d1e11543661","created_at":null,"updated_at":null},{"id":35,"historico_id":5,"name":"Peter Brown","governmentId":"2811","email":"sanderson@example.com","debtAmount":"2057.00","debtDueDate":"2023-10-06","debtId":"805e866e-7e4c-43d5-b498-7ac33d490637","created_at":null,"updated_at":null},{"id":36,"historico_id":5,"name":"Brett Bauer","governmentId":"9672","email":"clayjennifer@example.net","debtAmount":"6926.00","debtDueDate":"2023-11-25","debtId":"420f1d46-bf03-4221-a81e-f48c078baa6b","created_at":null,"updated_at":null},{"id":37,"historico_id":5,"name":"Lauren Reyes","governmentId":"6050","email":"sabrinalane@example.net","debtAmount":"5737.00","debtDueDate":"2024-07-19","debtId":"39a24197-e1c7-4769-bfed-86efa8604acc","created_at":null,"updated_at":null},{"id":38,"historico_id":5,"name":"Matthew Jacobs","governmentId":"3254","email":"dmullins@example.org","debtAmount":"9208.00","debtDueDate":"2023-01-13","debtId":"aea18e3d-a946-4ef9-99bd-52654d56e281","created_at":null,"updated_at":null},{"id":39,"historico_id":5,"name":"Donna Johnson","governmentId":"6737","email":"lambertamy@example.net","debtAmount":"4519.00","debtDueDate":"2024-04-27","debtId":"aa087649-19e9-4625-8d3d-33f5583ec1b2","created_at":null,"updated_at":null},{"id":40,"historico_id":5,"name":"Tara Anderson DDS","governmentId":"8912","email":"rboyd@example.com","debtAmount":"4312.00","debtDueDate":"2023-12-18","debtId":"c3dccbc6-ec69-4705-acce-f58acf4a924e","created_at":null,"updated_at":null},{"id":41,"historico_id":5,"name":"Stanley Frederick","governmentId":"5550","email":"kevinwarren@example.org","debtAmount":"1372.00","debtDueDate":"2023-07-05","debtId":"7096943c-5427-4d2b-bdb4-17a1d5d79ae2","created_at":null,"updated_at":null},{"id":42,"historico_id":5,"name":"John Fletcher","governmentId":"2460","email":"tgeorge@example.com","debtAmount":"1417.00","debtDueDate":"2024-02-17","debtId":"0afc2fef-b59b-4c7b-9217-9143e9ea2557","created_at":null,"updated_at":null},{"id":43,"historico_id":5,"name":"Anna Medina","governmentId":"5718","email":"wallen@example.com","debtAmount":"9503.00","debtDueDate":"2024-08-18","debtId":"dd3ea580-e2f5-4fbb-b9be-bce59e5a943a","created_at":null,"updated_at":null},{"id":44,"historico_id":5,"name":"Donna Cooper","governmentId":"5380","email":"haileycarter@example.net","debtAmount":"4994.00","debtDueDate":"2024-06-08","debtId":"6cf1af4f-0ca8-493d-9882-60bcf35c8de0","created_at":null,"updated_at":null},{"id":45,"historico_id":5,"name":"Valerie Johnson","governmentId":"8066","email":"banksgabrielle@example.com","debtAmount":"5339.00","debtDueDate":"2024-07-31","debtId":"c06d9f70-c483-49bc-9c9a-c7366dfe36ad","created_at":null,"updated_at":null},{"id":46,"historico_id":5,"name":"Miss Lisa Wright MD","governmentId":"4584","email":"griffinkevin@example.net","debtAmount":"4298.00","debtDueDate":"2023-02-13","debtId":"fa3bf722-2d14-43e4-9434-5ff1d5d8f219","created_at":null,"updated_at":null},{"id":47,"historico_id":5,"name":"Douglas Jackson","governmentId":"7557","email":"mitchellmichael@example.com","debtAmount":"8205.00","debtDueDate":"2022-10-25","debtId":"c8d0986c-3d17-4904-8456-28d307eee44f","created_at":null,"updated_at":null},{"id":48,"historico_id":5,"name":"Frank Fuller","governmentId":"4108","email":"fjackson@example.org","debtAmount":"3177.00","debtDueDate":"2023-12-27","debtId":"a657f30a-95b6-4c56-a832-c9f58164a5df","created_at":null,"updated_at":null},{"id":49,"historico_id":5,"name":"Michael Cortez","governmentId":"2192","email":"hyoung@example.org","debtAmount":"6187.00","debtDueDate":"2022-11-03","debtId":"4a9f09e6-af95-46b5-8c54-d3218221668d","created_at":null,"updated_at":null},{"id":50,"historico_id":5,"name":"Brandon Edwards","governmentId":"8299","email":"wintersthomas@example.org","debtAmount":"1662.00","debtDueDate":"2023-04-28","debtId":"951fa8c0-0a2f-4148-8a7e-7ba68ff432e1","created_at":null,"updated_at":null}],"first_page_url":"http:\/\/localhost\/api\/boletos?page=1","from":26,"last_page":44000,"last_page_url":"http:\/\/localhost\/api\/boletos?page=44000","links":[{"url":"http:\/\/localhost\/api\/boletos?page=1","label":"&laquo; Previous","active":false},{"url":"http:\/\/localhost\/api\/boletos?page=1","label":"1","active":false},{"url":"http:\/\/localhost\/api\/boletos?page=2","label":"2","active":true},{"url":"http:\/\/localhost\/api\/boletos?page=3","label":"3","active":false},{"url":"http:\/\/localhost\/api\/boletos?page=4","label":"4","active":false},{"url":"http:\/\/localhost\/api\/boletos?page=5","label":"5","active":false},{"url":"http:\/\/localhost\/api\/boletos?page=6","label":"6","active":false},{"url":"http:\/\/localhost\/api\/boletos?page=7","label":"7","active":false},{"url":"http:\/\/localhost\/api\/boletos?page=8","label":"8","active":false},{"url":"http:\/\/localhost\/api\/boletos?page=9","label":"9","active":false},{"url":"http:\/\/localhost\/api\/boletos?page=10","label":"10","active":false},{"url":null,"label":"...","active":false},{"url":"http:\/\/localhost\/api\/boletos?page=43999","label":"43999","active":false},{"url":"http:\/\/localhost\/api\/boletos?page=44000","label":"44000","active":false},{"url":"http:\/\/localhost\/api\/boletos?page=3","label":"Next &raquo;","active":false}],"next_page_url":"http:\/\/localhost\/api\/boletos?page=3","path":"http:\/\/localhost\/api\/boletos","per_page":25,"prev_page_url":"http:\/\/localhost\/api\/boletos?page=1","to":50,"total":1099999}